<svg width="15" height="22" viewBox="0 0 15 22" xmlns="http://www.w3.org/2000/svg">
<path d="M13.8379 0.831663C13.3082 0.299046 12.5911 0 11.8435 0C11.0958 0 10.3787 0.299046 9.84899 0.831663L0.159254 10.6134C0.108798 10.6639 0.0687504 10.724 0.0414209 10.7902C0.0140915 10.8565 2.00272e-05 10.9275 2.00272e-05 10.9992C2.00272e-05 11.071 0.0140915 11.142 0.0414209 11.2082C0.0687504 11.2745 0.108798 11.3346 0.159254 11.3851L9.84899 21.1668C10.3787 21.7008 11.0968 22.0005 11.8454 22C12.5939 21.9995 13.3117 21.6988 13.8406 21.1641C14.3696 20.6294 14.6665 19.9045 14.666 19.1488C14.6655 18.3931 14.3676 17.6686 13.8379 17.1346L7.76031 10.9992L13.8379 4.86391C14.1006 4.5994 14.3091 4.28516 14.4513 3.9392C14.5935 3.59324 14.6667 3.22235 14.6667 2.84779C14.6667 2.47322 14.5935 2.10234 14.4513 1.75638C14.3091 1.41042 14.1006 1.09618 13.8379 0.831663Z"/>
</svg>
