<svg width="19" height="17" viewBox="0 0 19 17" xmlns="http://www.w3.org/2000/svg">
<path d="M10.9269 7.06405C11.8335 7.97065 11.8335 9.44053 10.9269 10.3471C10.0203 11.2537 8.55042 11.2537 7.64382 10.3471C6.73722 9.44053 6.73722 7.97065 7.64382 7.06405C8.55042 6.15744 10.0203 6.15744 10.9269 7.06405Z" />
<path d="M16.2499 2.3215H14.6459L13.4846 0H5.08565L3.92545 2.32265L2.32375 2.3255C1.04682 2.32778 0.00733799 3.36837 0.00623539 4.64586L0 13.9284C0 15.2088 1.04116 16.2505 2.3215 16.2505H16.2499C17.5303 16.2505 18.5714 15.2093 18.5714 13.929V4.64297C18.5714 3.36266 17.5302 2.3215 16.2499 2.3215ZM9.28541 13.3486C6.72529 13.3486 4.6424 11.2657 4.6424 8.7056C4.6424 6.14547 6.72529 4.06258 9.28541 4.06258C11.8455 4.06258 13.9284 6.14547 13.9284 8.7056C13.9284 11.2657 11.8455 13.3486 9.28541 13.3486Z" />
</svg>
