<svg width="14" height="10" viewBox="0 0 14 10"  xmlns="http://www.w3.org/2000/svg">
<path d="M13.4708 9.47261C13.8097 9.13554 14 8.67916 14 8.2034C14 7.72764 13.8097 7.27127 13.4708 6.93419L7.24602 0.768001C7.21387 0.735892 7.17562 0.710407 7.13348 0.693016C7.09134 0.675624 7.04614 0.66667 7.00048 0.66667C6.95483 0.66667 6.90963 0.675624 6.86749 0.693016C6.82535 0.710407 6.7871 0.735892 6.75495 0.768001L0.530209 6.93419C0.190398 7.27126 -0.000323855 7.72825 4.12819e-07 8.20461C0.000324681 8.68098 0.191668 9.13771 0.531938 9.47432C0.872208 9.81094 1.33353 9.99987 1.81442 9.99954C2.29531 9.99922 2.75638 9.80968 3.09619 9.47261L7.00048 5.60504L10.9048 9.47261C11.0731 9.63978 11.2731 9.77242 11.4932 9.86292C11.7134 9.95342 11.9494 10 12.1878 10C12.4261 10 12.6621 9.95342 12.8823 9.86292C13.1025 9.77242 13.3024 9.63978 13.4708 9.47261Z" />
</svg>
