<svg width="16" height="18" viewBox="0 0 16 18"  xmlns="http://www.w3.org/2000/svg">
<path fill-rule="evenodd" clip-rule="evenodd" d="M0.701961 13.9418C0.985354 14.0887 2.00459 14.0856 2.83651 14.0856H13.6257C14.4576 14.0856 14.2703 14.0887 14.5537 13.9418C14.9315 13.7458 15.1905 13.3783 15.2479 12.9565C15.2911 12.6402 15.1512 12.2486 14.8713 11.4651L13.7743 8.39334C13.6951 8.17156 13.6555 8.06076 13.6257 7.94759C13.5861 7.79671 13.5594 7.64273 13.546 7.4873C13.536 7.37077 13.536 7.25306 13.536 7.01755V5.90818C13.536 2.72685 11.2636 0 7.62782 0C3.99202 0 1.71964 2.72685 1.71964 5.90818V7.01755C1.71964 7.25306 1.71964 7.37077 1.70962 7.4873C1.69626 7.64273 1.66959 7.79671 1.6299 7.94759C1.60013 8.06076 1.56054 8.17156 1.48135 8.39334L0.384292 11.4651C0.10448 12.2486 -0.0354165 12.6402 0.00768593 12.9565C0.0651498 13.3783 0.32411 13.7458 0.701961 13.9418Z" />
<path d="M7.64961 18C5.66243 18 4.77336 16.6274 4.41352 15.7784C4.27396 15.4491 4.53103 15.1232 4.88864 15.1232H10.4106C10.7682 15.1232 11.0253 15.4491 10.8857 15.7784C10.5259 16.6274 9.6368 18 7.64961 18Z" />
</svg>
