<svg width="9" height="7" viewBox="0 0 9 7" xmlns="http://www.w3.org/2000/svg">
<path d="M3.39131 4.25012L7.21631 6.35762C7.34677 6.43998 7.49679 6.48616 7.65099 6.49144C7.80519 6.49671 7.95802 6.46088 8.09381 6.38762C8.22477 6.30466 8.33131 6.18834 8.40248 6.05061C8.47366 5.91288 8.5069 5.75869 8.49881 5.60387V1.39262C8.50682 1.23811 8.47437 1.08419 8.40466 0.946072C8.33494 0.807955 8.23037 0.69043 8.10131 0.60512C7.98773 0.537713 7.85837 0.501492 7.72631 0.50012C7.55231 0.504324 7.38214 0.552025 7.23131 0.63887L3.39131 2.75012C3.2449 2.81611 3.1193 2.92086 3.0281 3.05304C2.93689 3.18523 2.88354 3.33982 2.87381 3.50012C2.88354 3.66042 2.93689 3.81501 3.0281 3.9472C3.1193 4.07938 3.2449 4.18413 3.39131 4.25012Z" />
<path d="M1.93634 6.5C2.18498 6.5 2.42344 6.40123 2.59925 6.22541C2.77507 6.0496 2.87384 5.81114 2.87384 5.5625L2.87384 1.4375C2.87384 1.18886 2.77507 0.950403 2.59925 0.774588C2.42344 0.598772 2.18498 0.5 1.93634 0.5C1.6877 0.5 1.44924 0.598772 1.27343 0.774588C1.09761 0.950403 0.99884 1.18886 0.99884 1.4375L0.99884 5.5625C0.99884 5.81114 1.09761 6.0496 1.27343 6.22541C1.44924 6.40123 1.6877 6.5 1.93634 6.5Z" />
</svg>
