<svg width="18" height="16" viewBox="0 0 18 16"  xmlns="http://www.w3.org/2000/svg">
<path d="M3.99999 15.9999C3.26972 15.9999 2.55585 15.7833 1.94865 15.3776C1.34145 14.9719 0.868202 14.3952 0.58874 13.7205C0.309278 13.0458 0.236158 12.3034 0.378627 11.5872C0.521095 10.871 0.872753 10.2131 1.38913 9.69669C1.90551 9.18031 2.56342 8.82865 3.27965 8.68618C3.99589 8.54371 4.73829 8.61683 5.41297 8.8963C6.08765 9.17576 6.66431 9.64901 7.07003 10.2562C7.47574 10.8634 7.6923 11.5773 7.6923 12.3075C7.6923 13.2868 7.30329 14.226 6.61084 14.9184C5.9184 15.6108 4.97925 15.9999 3.99999 15.9999ZM3.99999 9.84601C3.51314 9.84601 3.03723 9.99037 2.63243 10.2608C2.22763 10.5313 1.91213 10.9158 1.72582 11.3656C1.53951 11.8153 1.49077 12.3103 1.58575 12.7878C1.68073 13.2653 1.91516 13.7039 2.25942 14.0481C2.60367 14.3924 3.04227 14.6268 3.51977 14.7218C3.99726 14.8168 4.49219 14.768 4.94198 14.5817C5.39176 14.3954 5.7762 14.0799 6.04668 13.6751C6.31716 13.2703 6.46153 12.7944 6.46153 12.3075C6.46153 11.6547 6.20219 11.0286 5.74056 10.567C5.27893 10.1053 4.65283 9.84601 3.99999 9.84601Z" />
<path d="M13.2308 15.9999C12.5006 15.9999 11.7867 15.7833 11.1795 15.3776C10.5723 14.9719 10.099 14.3952 9.81958 13.7205C9.54011 13.0458 9.46699 12.3034 9.60946 11.5872C9.75193 10.871 10.1036 10.2131 10.62 9.69669C11.1363 9.18031 11.7943 8.82865 12.5105 8.68618C13.2267 8.54371 13.9691 8.61683 14.6438 8.8963C15.3185 9.17576 15.8951 9.64901 16.3009 10.2562C16.7066 10.8634 16.9231 11.5773 16.9231 12.3075C16.9231 13.2868 16.5341 14.226 15.8417 14.9184C15.1492 15.6108 14.2101 15.9999 13.2308 15.9999ZM13.2308 9.84601C12.744 9.84601 12.2681 9.99037 11.8633 10.2608C11.4585 10.5313 11.143 10.9158 10.9567 11.3656C10.7703 11.8153 10.7216 12.3103 10.8166 12.7878C10.9116 13.2653 11.146 13.7039 11.4903 14.0481C11.8345 14.3924 12.2731 14.6268 12.7506 14.7218C13.2281 14.8168 13.723 14.768 14.1728 14.5817C14.6226 14.3954 15.007 14.0799 15.2775 13.6751C15.548 13.2703 15.6924 12.7944 15.6924 12.3075C15.6924 11.6547 15.433 11.0286 14.9714 10.567C14.5098 10.1053 13.8837 9.84601 13.2308 9.84601Z" />
<path d="M7.0769 11.6985H10.1538V12.9293H7.0769V11.6985Z" />
<path d="M4.00002 15.3907C5.69936 15.3907 7.07694 14.0131 7.07694 12.3137C7.07694 10.6144 5.69936 9.23682 4.00002 9.23682C2.30068 9.23682 0.923096 10.6144 0.923096 12.3137C0.923096 14.0131 2.30068 15.3907 4.00002 15.3907Z" />
<path d="M13.2307 15.3907C14.9301 15.3907 16.3077 14.0131 16.3077 12.3137C16.3077 10.6144 14.9301 9.23682 13.2307 9.23682C11.5314 9.23682 10.1538 10.6144 10.1538 12.3137C10.1538 14.0131 11.5314 15.3907 13.2307 15.3907Z" />
<path d="M16.6154 6.15991H0.615385C0.275517 6.15991 0 6.43543 0 6.7753C0 7.11516 0.275517 7.39068 0.615385 7.39068H16.6154C16.9553 7.39068 17.2308 7.11516 17.2308 6.7753C17.2308 6.43543 16.9553 6.15991 16.6154 6.15991Z" />
<path d="M15.52 7.38462H1.71075L2.94152 1.38462C3.01853 0.999814 3.22458 0.652827 3.5256 0.401049C3.82661 0.149271 4.20455 0.00778711 4.59691 0H12.6277C13.0253 0.000774287 13.4105 0.139072 13.7178 0.391437C14.0251 0.643802 14.2357 0.994699 14.3138 1.38462L15.52 7.38462ZM3.21229 6.15385H14.0184L13.1077 1.62462C13.0851 1.51383 13.025 1.4142 12.9376 1.34248C12.8502 1.27076 12.7407 1.23131 12.6277 1.23077H4.59691C4.48384 1.23131 4.3744 1.27076 4.28699 1.34248C4.19958 1.4142 4.13952 1.51383 4.11691 1.62462L3.21229 6.15385Z" />
<path d="M14.7569 6.76908H2.44922L3.51383 1.50754C3.56357 1.25662 3.69862 1.03065 3.89605 0.868C4.09347 0.705347 4.34111 0.616037 4.59691 0.615234H12.6277C12.8835 0.616037 13.1311 0.705347 13.3285 0.868C13.526 1.03065 13.661 1.25662 13.7108 1.50754L14.7569 6.76908Z" />
</svg>
