<svg width="17" height="20" viewBox="0 0 17 20" xmlns="http://www.w3.org/2000/svg">
<path d="M0.264044 6.89299L6.65962 0.255462C6.91207 0.0034045 7.24868 -0.0806151 7.58529 0.0874236C7.9219 0.255462 8.09021 0.50752 8.09021 0.843597V3.53222C12.971 3.78427 16.842 7.8172 16.842 12.6903C16.842 15.463 15.5798 18.0676 13.3918 19.832C13.3076 19.916 13.1393 20 12.971 20C12.8027 20 12.7186 19.916 12.5503 19.832C12.2978 19.6639 12.2978 19.3278 12.382 18.9918C12.8027 18.2356 13.0552 17.3954 13.0552 16.4712C13.0552 13.6986 10.7831 11.43 8.00605 11.43V14.0346C8.00605 14.3707 7.7536 14.7068 7.50114 14.7908C7.16453 14.9588 6.82792 14.8748 6.57546 14.6228L0.179892 7.98524C-0.0725651 7.73318 -0.0725651 7.22906 0.264044 6.89299Z" />
</svg>
