<svg width="16" height="17" viewBox="0 0 16 17" xmlns="http://www.w3.org/2000/svg">
<path d="M14.6643 3.51758H0.771804C0.567109 3.51758 0.370798 3.63507 0.226056 3.77981C0.0813148 3.92455 0 4.26558 0 4.47027C0 4.67497 0.0813148 5.05217 0.226056 5.19691C0.370798 5.34166 0.567109 5.42297 0.771804 5.42297H2.31541V14.6846C2.31627 15.2984 2.56049 15.8869 2.99453 16.3209C3.42857 16.755 4.017 16.9992 4.63083 17H10.8053C11.4191 16.9992 12.0075 16.755 12.4416 16.3209C12.8756 15.8869 13.1198 15.2984 13.1207 14.6846V5.42297H14.6643C14.869 5.42297 15.0653 5.30548 15.21 5.16074C15.3548 5.01599 15.4361 4.67497 15.4361 4.47027C15.4361 4.26558 15.3548 3.92455 15.21 3.77981C15.0653 3.63507 14.869 3.51758 14.6643 3.51758ZM9.62795 11.2582C9.76966 11.4035 9.8484 11.5989 9.84712 11.8019C9.84583 12.0049 9.76462 12.1992 9.62108 12.3427C9.47754 12.4863 9.28322 12.5675 9.08022 12.5688C8.87722 12.5701 8.68189 12.4913 8.53654 12.3496L7.71804 11.5311L6.89954 12.3496C6.75419 12.4913 6.55886 12.5701 6.35587 12.5688C6.15287 12.5675 5.95855 12.4863 5.81501 12.3427C5.67146 12.1992 5.59025 12.0049 5.58897 11.8019C5.58768 11.5989 5.66642 11.4035 5.80814 11.2582L6.62664 10.4397L5.80814 9.6212C5.66642 9.47585 5.58768 9.28052 5.58897 9.07752C5.59025 8.87452 5.67146 8.68021 5.81501 8.53666C5.95855 8.39312 6.15287 8.31191 6.35587 8.31062C6.55886 8.30934 6.75419 8.38808 6.89954 8.52979L7.71804 9.34829L8.53654 8.52979C8.68189 8.38808 8.87722 8.30934 9.08022 8.31062C9.28322 8.31191 9.47754 8.39312 9.62108 8.53666C9.76462 8.68021 9.84583 8.87452 9.84712 9.07752C9.8484 9.28052 9.76966 9.47585 9.62795 9.6212L8.80945 10.4397L9.62795 11.2582Z" />
<path d="M5.80665 3.0231H9.59332C9.84439 3.0231 10.0852 2.91447 10.2627 2.72111C10.4402 2.52774 10.54 2.26548 10.54 1.99202C10.54 1.71856 10.4402 1.4563 10.2627 1.26293C10.0852 1.06957 9.84439 0.960938 9.59332 0.960938H5.80665C5.55558 0.960938 5.31479 1.06957 5.13726 1.26293C4.95972 1.4563 4.85999 1.71856 4.85999 1.99202C4.85999 2.26548 4.95972 2.52774 5.13726 2.72111C5.31479 2.91447 5.55558 3.0231 5.80665 3.0231Z"/>
</svg>
