<svg width="5" height="16" viewBox="0 0 5 16" xmlns="http://www.w3.org/2000/svg">
<path d="M2.39995 4.7999C3.72541 4.7999 4.7999 3.72541 4.7999 2.39995C4.7999 1.07449 3.72541 0 2.39995 0C1.07449 0 0 1.07449 0 2.39995C0 3.72541 1.07449 4.7999 2.39995 4.7999Z" />
<path d="M2.39995 10.3998C3.72541 10.3998 4.7999 9.32526 4.7999 7.9998C4.7999 6.67435 3.72541 5.59985 2.39995 5.59985C1.07449 5.59985 0 6.67435 0 7.9998C0 9.32526 1.07449 10.3998 2.39995 10.3998Z" />
<path d="M2.39995 16.0001C3.72541 16.0001 4.7999 14.9256 4.7999 13.6001C4.7999 12.2747 3.72541 11.2002 2.39995 11.2002C1.07449 11.2002 0 12.2747 0 13.6001C0 14.9256 1.07449 16.0001 2.39995 16.0001Z" />
</svg>
